%YAML 1.1
%TAG !u! tag:unity3d.com,2011:
--- !u!78 &1
TagManager:
  serializedVersion: 2
  tags:
  - BowlingBall
  - Floor
  - Projectile
  - RedSword
  - Sword
  layers:
  - Default
  - TransparentFX
  - Ignore Raycast
  - Player
  - Water
  - UI
  - BlueBox
  - RedBox
  - RedSword
  - BlueSword
  - SlicedCube
  - Floor
  - 
  - 
  - 
  - 
  - 
  - 
  - 
  - 
  - 
  - 
  - 
  - 
  - 
  - 
  - 
  - 
  - HandPlayer
  - Hand
  - Grabbable
  - Grabbing
  m_SortingLayers:
  - name: Default
    uniqueID: 0
    locked: 0
